file,tissue_name,tissue_id,tiss_cat_name,tiss_cat_id
/gadb-giggle-abs-path/CL:0000047_neuronal_stem_cell_expressed_enhancers.bed.gz,neuronal stem cell,1,Stem Cell,27
/gadb-giggle-abs-path/CL:0000056_myoblast_expressed_enhancers.bed.gz,myoblast,2,Stem Cell,27
/gadb-giggle-abs-path/CL:0000062_osteoblast_expressed_enhancers.bed.gz,osteoblast,3,Connective Tissue,7
/gadb-giggle-abs-path/CL:0000067_ciliated_epithelial_cell_expressed_enhancers.bed.gz,ciliated epithelial cell,4,Epithelial,11
/gadb-giggle-abs-path/CL:0000071_blood_vessel_endothelial_cell_expressed_enhancers.bed.gz,blood vessel endothelial cell,5,Epithelial,11
/gadb-giggle-abs-path/CL:0000077_mesothelial_cell_expressed_enhancers.bed.gz,mesothelial cell,6,Epithelial,11
/gadb-giggle-abs-path/CL:0000080_circulating_cell_expressed_enhancers.bed.gz,circulating cell,7,Circulating Cell,6
/gadb-giggle-abs-path/CL:0000084_T_cell_expressed_enhancers.bed.gz,T cell,8,Blood,2
/gadb-giggle-abs-path/CL:0000094_granulocyte_expressed_enhancers.bed.gz,granulocyte,9,Blood,2
/gadb-giggle-abs-path/CL:0000097_mast_cell_expressed_enhancers.bed.gz,mast cell,10,Blood,2
/gadb-giggle-abs-path/CL:0000098_sensory_epithelial_cell_expressed_enhancers.bed.gz,sensory epithelial cell,11,Epithelial,11
/gadb-giggle-abs-path/CL:0000127_astrocyte_expressed_enhancers.bed.gz,astrocyte,12,Brain,4
/gadb-giggle-abs-path/CL:0000134_mesenchymal_cell_expressed_enhancers.bed.gz,mesenchymal cell,13,Connective Tissue,7
/gadb-giggle-abs-path/CL:0000136_fat_cell_expressed_enhancers.bed.gz,fat cell,14,Adipose,1
/gadb-giggle-abs-path/CL:0000138_chondrocyte_expressed_enhancers.bed.gz,chondrocyte,15,Connective Tissue,7
/gadb-giggle-abs-path/CL:0000148_melanocyte_expressed_enhancers.bed.gz,melanocyte,16,Epithelial,11
/gadb-giggle-abs-path/CL:0000182_hepatocyte_expressed_enhancers.bed.gz,hepatocyte,17,Liver,19
/gadb-giggle-abs-path/CL:0000188_skeletal_muscle_cell_expressed_enhancers.bed.gz,skeletal muscle cell,18,Skeletal Muscle,25
/gadb-giggle-abs-path/CL:0000235_macrophage_expressed_enhancers.bed.gz,macrophage,19,Blood,2
/gadb-giggle-abs-path/CL:0000312_keratinocyte_expressed_enhancers.bed.gz,keratinocyte,20,Epithelial,11
/gadb-giggle-abs-path/CL:0000359_vascular_associated_smooth_muscle_cell_expressed_enhancers.bed.gz,vascular associated smooth muscle cell,21,Smooth Muscle,26
/gadb-giggle-abs-path/CL:0000388_tendon_cell_expressed_enhancers.bed.gz,tendon cell,22,Connective Tissue,7
/gadb-giggle-abs-path/CL:0000451_dendritic_cell_expressed_enhancers.bed.gz,dendritic cell,23,Blood,2
/gadb-giggle-abs-path/CL:0000499_stromal_cell_expressed_enhancers.bed.gz,stromal cell,24,Connective Tissue,7
/gadb-giggle-abs-path/CL:0000540_neuron_expressed_enhancers.bed.gz,neuron,25,Nervous,22
/gadb-giggle-abs-path/CL:0000558_reticulocyte_expressed_enhancers.bed.gz,reticulocyte,26,Blood,2
/gadb-giggle-abs-path/CL:0000575_corneal_epithelial_cell_expressed_enhancers.bed.gz,corneal epithelial cell,27,Epithelial,11
/gadb-giggle-abs-path/CL:0000576_monocyte_expressed_enhancers.bed.gz,monocyte,28,Blood,2
/gadb-giggle-abs-path/CL:0000622_acinar_cell_expressed_enhancers.bed.gz,acinar cell,29,Epithelial,11
/gadb-giggle-abs-path/CL:0000623_natural_killer_cell_expressed_enhancers.bed.gz,natural killer cell,30,Blood,2
/gadb-giggle-abs-path/CL:0000632_hepatic_stellate_cell_expressed_enhancers.bed.gz,hepatic stellate cell,31,Liver,19
/gadb-giggle-abs-path/CL:0000669_pericyte_cell_expressed_enhancers.bed.gz,pericyte cell,32,Connective Tissue,7
/gadb-giggle-abs-path/CL:0000731_urothelial_cell_expressed_enhancers.bed.gz,urothelial cell,33,Epithelial,11
/gadb-giggle-abs-path/CL:0000746_cardiac_myocyte_expressed_enhancers.bed.gz,cardiac myocyte,34,Heart,16
/gadb-giggle-abs-path/CL:0000767_basophil_expressed_enhancers.bed.gz,basophil,35,Blood,2
/gadb-giggle-abs-path/CL:0000775_neutrophil_expressed_enhancers.bed.gz,neutrophil,36,Blood,2
/gadb-giggle-abs-path/CL:0000945_lymphocyte_of_B_lineage_expressed_enhancers.bed.gz,lymphocyte of B lineage,37,Blood,2
/gadb-giggle-abs-path/CL:0002138_endothelial_cell_of_lymphatic_vessel_expressed_enhancers.bed.gz,endothelial cell of lymphatic vessel,38,Epithelial,11
/gadb-giggle-abs-path/CL:0002166_epithelial_cell_of_Malassez_expressed_enhancers.bed.gz,epithelial cell of Malassez,39,Epithelial,11
/gadb-giggle-abs-path/CL:0002224_lens_epithelial_cell_expressed_enhancers.bed.gz,lens epithelial cell,40,Epithelial,11
/gadb-giggle-abs-path/CL:0002231_epithelial_cell_of_prostate_expressed_enhancers.bed.gz,epithelial cell of prostate,41,Epithelial,11
/gadb-giggle-abs-path/CL:0002252_epithelial_cell_of_esophagus_expressed_enhancers.bed.gz,epithelial cell of esophagus,42,Epithelial,11
/gadb-giggle-abs-path/CL:0002327_mammary_epithelial_cell_expressed_enhancers.bed.gz,mammary epithelial cell,43,Epithelial,11
/gadb-giggle-abs-path/CL:0002334_preadipocyte_expressed_enhancers.bed.gz,preadipocyte,44,Connective Tissue,7
/gadb-giggle-abs-path/CL:0002363_keratocyte_expressed_enhancers.bed.gz,keratocyte,45,Connective Tissue,7
/gadb-giggle-abs-path/CL:0002367_trabecular_meshwork_cell_expressed_enhancers.bed.gz,trabecular meshwork cell,46,Epithelial,11
/gadb-giggle-abs-path/CL:0002368_respiratory_epithelial_cell_expressed_enhancers.bed.gz,respiratory epithelial cell,47,Epithelial,11
/gadb-giggle-abs-path/CL:0002504_enteric_smooth_muscle_cell_expressed_enhancers.bed.gz,enteric smooth muscle cell,48,Smooth Muscle,26
/gadb-giggle-abs-path/CL:0002518_kidney_epithelial_cell_expressed_enhancers.bed.gz,kidney epithelial cell,49,Epithelial,11
/gadb-giggle-abs-path/CL:0002536_amniotic_epithelial_cell_expressed_enhancers.bed.gz,amniotic epithelial cell,50,Epithelial,11
/gadb-giggle-abs-path/CL:0002548_cardiac_fibroblast_expressed_enhancers.bed.gz,cardiac fibroblast,51,Connective Tissue,7
/gadb-giggle-abs-path/CL:0002549_fibroblast_of_choroid_plexus_expressed_enhancers.bed.gz,fibroblast of choroid plexus,52,Connective Tissue,7
/gadb-giggle-abs-path/CL:0002550_fibroblast_of_the_conjuctiva_expressed_enhancers.bed.gz,fibroblast of the conjuctiva,53,Connective Tissue,7
/gadb-giggle-abs-path/CL:0002552_fibroblast_of_gingiva_expressed_enhancers.bed.gz,fibroblast of gingiva,54,Connective Tissue,7
/gadb-giggle-abs-path/CL:0002554_fibroblast_of_lymphatic_vessel_expressed_enhancers.bed.gz,fibroblast of lymphatic vessel,55,Connective Tissue,7
/gadb-giggle-abs-path/CL:0002556_fibroblast_of_periodontium_expressed_enhancers.bed.gz,fibroblast of periodontium,56,Connective Tissue,7
/gadb-giggle-abs-path/CL:0002557_fibroblast_of_pulmonary_artery_expressed_enhancers.bed.gz,fibroblast of pulmonary artery,57,Connective Tissue,7
/gadb-giggle-abs-path/CL:0002559_hair_follicle_cell_expressed_enhancers.bed.gz,hair follicle cell,58,Hair Follicle,15
/gadb-giggle-abs-path/CL:0002563_intestinal_epithelial_cell_expressed_enhancers.bed.gz,intestinal epithelial cell,59,Epithelial,11
/gadb-giggle-abs-path/CL:0002565_iris_pigment_epithelial_cell_expressed_enhancers.bed.gz,iris pigment epithelial cell,60,Epithelial,11
/gadb-giggle-abs-path/CL:0002577_placental_epithelial_cell_expressed_enhancers.bed.gz,placental epithelial cell,61,Epithelial,11
/gadb-giggle-abs-path/CL:0002586_retinal_pigment_epithelial_cell_expressed_enhancers.bed.gz,retinal pigment epithelial cell,62,Epithelial,11
/gadb-giggle-abs-path/CL:0002598_bronchial_smooth_muscle_cell_expressed_enhancers.bed.gz,bronchial smooth muscle cell,63,Smooth Muscle,26
/gadb-giggle-abs-path/CL:0002599_smooth_muscle_cell_of_the_esophagus_expressed_enhancers.bed.gz,smooth muscle cell of the esophagus,64,Smooth Muscle,26
/gadb-giggle-abs-path/CL:0002600_smooth_muscle_cell_of_trachea_expressed_enhancers.bed.gz,smooth muscle cell of trachea,65,Smooth Muscle,26
/gadb-giggle-abs-path/CL:0002601_uterine_smooth_muscle_cell_expressed_enhancers.bed.gz,uterine smooth muscle cell,66,Smooth Muscle,26
/gadb-giggle-abs-path/CL:0002620_skin_fibroblast_expressed_enhancers.bed.gz,skin fibroblast,67,Connective Tissue,7
/gadb-giggle-abs-path/CL:0002621_gingival_epithelial_cell_expressed_enhancers.bed.gz,gingival epithelial cell,68,Epithelial,11
/gadb-giggle-abs-path/CL:1000306_fibroblast_of_tunica_adventitia_of_artery_expressed_enhancers.bed.gz,fibroblast of tunica adventitia of artery,69,Connective Tissue,7
/gadb-giggle-abs-path/CL:1000398_endothelial_cell_of_hepatic_sinusoid_expressed_enhancers.bed.gz,endothelial cell of hepatic sinusoid,70,Epithelial,11
/gadb-giggle-abs-path/CL:1000487_smooth_muscle_cell_of_prostate_expressed_enhancers.bed.gz,smooth muscle cell of prostate,71,Smooth Muscle,26
/gadb-giggle-abs-path/UBERON:0000029_lymph_node_expressed_enhancers.bed.gz,lymph node,72,Immune Organ,17
/gadb-giggle-abs-path/UBERON:0000059_large_intestine_expressed_enhancers.bed.gz,large intestine,73,Digestive,8
/gadb-giggle-abs-path/UBERON:0000178_blood_expressed_enhancers.bed.gz,blood,74,Blood,2
/gadb-giggle-abs-path/UBERON:0000341_throat_expressed_enhancers.bed.gz,throat,75,Throat,28
/gadb-giggle-abs-path/UBERON:0000473_testis_expressed_enhancers.bed.gz,testis,76,Male Reproductive,21
/gadb-giggle-abs-path/UBERON:0000945_stomach_expressed_enhancers.bed.gz,stomach,77,Digestive,8
/gadb-giggle-abs-path/UBERON:0000948_heart_expressed_enhancers.bed.gz,heart,78,Heart,16
/gadb-giggle-abs-path/UBERON:0000955_brain_expressed_enhancers.bed.gz,brain,79,Brain,4
/gadb-giggle-abs-path/UBERON:0000970_eye_expressed_enhancers.bed.gz,eye,80,Eye,13
/gadb-giggle-abs-path/UBERON:0000989_penis_expressed_enhancers.bed.gz,penis,81,Male Reproductive,21
/gadb-giggle-abs-path/UBERON:0000992_female_gonad_expressed_enhancers.bed.gz,female gonad,82,Female Reproductive,14
/gadb-giggle-abs-path/UBERON:0000995_uterus_expressed_enhancers.bed.gz,uterus,83,Female Reproductive,14
/gadb-giggle-abs-path/UBERON:0000996_vagina_expressed_enhancers.bed.gz,vagina,84,Female Reproductive,14
/gadb-giggle-abs-path/UBERON:0001013_adipose_tissue_expressed_enhancers.bed.gz,adipose tissue,85,Adipose,1
/gadb-giggle-abs-path/UBERON:0001043_esophagus_expressed_enhancers.bed.gz,esophagus,86,Digestive,8
/gadb-giggle-abs-path/UBERON:0001044_salivary_gland_expressed_enhancers.bed.gz,salivary gland,87,Digestive,8
/gadb-giggle-abs-path/UBERON:0001134_skeletal_muscle_tissue_expressed_enhancers.bed.gz,skeletal muscle tissue,88,Skeletal Muscle,25
/gadb-giggle-abs-path/UBERON:0001135_smooth_muscle_tissue_expressed_enhancers.bed.gz,smooth muscle tissue,89,Smooth Muscle,26
/gadb-giggle-abs-path/UBERON:0001255_urinary_bladder_expressed_enhancers.bed.gz,urinary bladder,90,Urinary,32
/gadb-giggle-abs-path/UBERON:0001264_pancreas_expressed_enhancers.bed.gz,pancreas,91,Digestive,8
/gadb-giggle-abs-path/UBERON:0001723_tongue_expressed_enhancers.bed.gz,tongue,92,Tongue,29
/gadb-giggle-abs-path/UBERON:0001736_submandibular_gland_expressed_enhancers.bed.gz,submandibular gland,93,Digestive,8
/gadb-giggle-abs-path/UBERON:0001831_parotid_gland_expressed_enhancers.bed.gz,parotid gland,94,Digestive,8
/gadb-giggle-abs-path/UBERON:0001981_blood_vessel_expressed_enhancers.bed.gz,blood vessel,95,Blood Vessel,3
/gadb-giggle-abs-path/UBERON:0001987_placenta_expressed_enhancers.bed.gz,placenta,96,Placenta,24
/gadb-giggle-abs-path/UBERON:0002046_thyroid_gland_expressed_enhancers.bed.gz,thyroid gland,97,Endocrine,10
/gadb-giggle-abs-path/UBERON:0002048_lung_expressed_enhancers.bed.gz,lung,98,Lung,20
/gadb-giggle-abs-path/UBERON:0002097_skin_of_body_expressed_enhancers.bed.gz,skin of body,99,Epithelial,11
/gadb-giggle-abs-path/UBERON:0002106_spleen_expressed_enhancers.bed.gz,spleen,100,Immune Organ,17
/gadb-giggle-abs-path/UBERON:0002107_liver_expressed_enhancers.bed.gz,liver,101,Liver,19
/gadb-giggle-abs-path/UBERON:0002108_small_intestine_expressed_enhancers.bed.gz,small intestine,102,Digestive,8
/gadb-giggle-abs-path/UBERON:0002110_gallbladder_expressed_enhancers.bed.gz,gallbladder,103,Digestive,8
/gadb-giggle-abs-path/UBERON:0002113_kidney_expressed_enhancers.bed.gz,kidney,104,Urinary,32
/gadb-giggle-abs-path/UBERON:0002240_spinal_cord_expressed_enhancers.bed.gz,spinal cord,105,Nervous,22
/gadb-giggle-abs-path/UBERON:0002331_umbilical_cord_expressed_enhancers.bed.gz,umbilical cord,106,Umblilical Cord,31
/gadb-giggle-abs-path/UBERON:0002360_meninx_expressed_enhancers.bed.gz,meninx,107,Brain,4
/gadb-giggle-abs-path/UBERON:0002367_prostate_gland_expressed_enhancers.bed.gz,prostate gland,108,Male Reproductive,21
/gadb-giggle-abs-path/UBERON:0002370_thymus_expressed_enhancers.bed.gz,thymus,109,Immune Organ,17
/gadb-giggle-abs-path/UBERON:0002372_tonsil_expressed_enhancers.bed.gz,tonsil,110,Tonsils,30
/gadb-giggle-abs-path/UBERON:0003112_olfactory_region_expressed_enhancers.bed.gz,olfactory region,111,Olfactory,23
/gadb-giggle-abs-path/UBERON:0004054_internal_male_genitalia_expressed_enhancers.bed.gz,internal male genitalia,112,Male Reproductive,21