annot_name	annot_type	annot_header	feature_name_col	feature_name_stats	multiway_overlap	gadb_giggle_files	tissue_info	tissue_info_file_path	rename_full_annot_dict	rename_ft_dict
FANTOM5	fantom5	["ft_chr", "ft_start", "ft_end", "ft_name", "ft_file"]	False	False	True	"analysis_tmp/giggle_parsed/fantom5_sv_overlap_parsed_tmp.txt"	True	pipeline_config/tissue_info_tables/tissue_info_table_fantom5.csv	{"ft_chr":"enh_chr", "ft_start":"enh_start", "ft_end":"enh_end",  "tissue_name":"enh_source", "class_name":"enh_class", "ft_len":"enh_len", "proportion_of_ft":"proportion_of_enh"}	
Roadmap	roadmap	["ft_chr", "ft_start", "ft_end", "ft_name", "ft_file"]	True	False	True	"analysis_tmp/giggle_parsed/roadmap_sv_overlap_parsed_tmp.txt"	True	pipeline_config/tissue_info_tables/tissue_info_table_roadmap.csv	{"ft_chr":"enh_chr", "ft_start":"enh_start", "ft_end":"enh_end", "ft_name":"enh_state", "tissue_name":"enh_source", "class_name":"enh_class", "ft_len":"enh_len", "proportion_of_ft":"proportion_of_enh"}	
GTEx eQTLs	gtex		True	False	False	*/gtex_eqtls_idx	True	pipeline_config/tissue_info_tables/tissue_info_table_gtex.csv	{"ft_chr":"eqtl_chr", "ft_start":"eqtl_start", "ft_end":"eqtl_end", "ft_name":"eqtl_gene", "tissue_name":"eqtl_source", "class_name":"eqtl_class"}	
Homer	homer	["ft_chr", "ft_start", "ft_end", "ft_name", "ft_file"]	True	True	True	"analysis_tmp/giggle_parsed/homer_sv_overlap_parsed_tmp.txt"	False		{"ft_chr":"tfbs_chr", "ft_start":"tfbs_start", "ft_end":"tfbs_end", "ft_name":"tf_name", "ft_len":"tfbs_len", "proportion_of_ft":"proportion_of_tfbs"}	{'Total_#_ft': 'Total_#_tfbs', 'ft_name':'tf_name', 'ft_coord':'tfbs_coord'}
Factorbook	factorbook		True	True	True	*/factorbook_idx	False		{"ft_chr":"tfbs_chr", "ft_start":"tfbs_start", "ft_end":"tfbs_end", "ft_name":"tf_name", "ft_len":"tfbs_len", "proportion_of_ft":"proportion_of_tfbs"}	{'Total_#_ft': 'Total_#_tfbs', '#_distinct_ft':'#_distinct_tf', '#_ft_coord':'#_tfbs_coord', '#_distinct_ft_coord':'#_distinct_tfbs_coord'}
TargetScan	targetscan		True	True	False	*/targetscan_idx	False			
DAHSR	dashr		True	True	False	*/dashr_idx	False			
genomic partition	genomic_partition		False	False	False	*/unstranded_partition_idx	False			
hg19_reference	hg_reference		True	False	False	*/hg19_reference	False			